…
-   **foodCode**: List of foodCode of foods available. The values depend
    on each endpoint.  
-   **lang**: Define which language you would like the response to be in
    query string
-   **apiKey**: If an API key is not set in the environment, an access
    key can be passed directly into a function.

If you want to find the serving size information for all foods where
this information is available, call `get_servingsize()`:

``` r
get_servingsize()
#> # A tibble: 16,656 x 4
#>    conversion_factor_value food_code food_description            measure_name   
#>                      <dbl>     <int> <chr>                       <chr>          
#>  1                  1.31          44 Cheese, ricotta, with part~ 125ml          
#>  2                  0.423         45 Cheese, romano              100ml grated   
#>  3                  1.06          45 Cheese, romano              250ml          
#>  4                  0.5           45 Cheese, romano              50g            
#>  5                  0.0634        45 Cheese, romano              15ml           
#>  6                  0             45 Cheese, romano              no serving spe~
#>  7                  0.571         46 Cheese, roquefort (blue)    100ml crumbled 
#>  8                  1.43          46 Cheese, roquefort (blue)    250ml          
#>  9                  0.5           46 Cheese, roquefort (blue)    50g            
#> 10                  0             46 Cheese, roquefort (blue)    no serving spe~
#> # ... with 16,646 more rows
```
…
